{
  "EDITOR_STATE": {
    "allProjectFiles": {
      "a771542f-218a-4d71-95f5-30e2b0d49442": {
        "id": "a771542f-218a-4d71-95f5-30e2b0d49442",
        "parent": null,
        "name": "l",
        "type": "DIRECTORY",
        "isDirectory": true,
        "children": [
          "0309c360-e5da-49c6-bdd3-b1ebadbeaf3d",
          "9b8e788e-1aee-4ba2-af82-6eccd1be812b"
        ],
        "isRemovable": false,
        "filePath": "l"
      },
      "0309c360-e5da-49c6-bdd3-b1ebadbeaf3d": {
        "id": "0309c360-e5da-49c6-bdd3-b1ebadbeaf3d",
        "parent": "a771542f-218a-4d71-95f5-30e2b0d49442",
        "name": "lambda.js",
        "type": "JS_LAMBDA",
        "isDirectory": false,
        "children": [],
        "isRemovable": true,
        "filePath": "l/lambda.js",
        "code": "let SL_AWS = require('slappforge-sdk-aws');\nlet connectionManager = require('./ConnectionManager');\nconst rds = new SL_AWS.RDS(connectionManager);\n\nexports.handler = function (event, context, callback) {\n\n    // You can pass the existing connection to this function.\n    // A new connection will be created if it's not present as the third param \n    // You must always end/destroy the DB connection after it's used\n    rds.query({\n        instanceIdentifier: 'k',\n        query: 'INSERT INTO Test (ID);',\n        inserts: [1]\n    }, function (error, results, connection) {\n        if (error) {\n            console.log(\"Error occurred\");\n            throw error;\n        } else {\n            console.log(\"Success\")\n            console.log(results);\n        }\n\n        connection.end();\n    });\n\n    callback(null, { \"message\": \"Successfully executed\" });\n}",
        "config": {
          "runtime": "nodejs8.10",
          "handler": "handler",
          "timeout": 60,
          "memory": 128,
          "layers": []
        },
        "triggers": []
      },
      "9b8e788e-1aee-4ba2-af82-6eccd1be812b": {
        "id": "9b8e788e-1aee-4ba2-af82-6eccd1be812b",
        "parent": "a771542f-218a-4d71-95f5-30e2b0d49442",
        "name": "ConnectionManager.js",
        "type": "JS_FILE",
        "isDirectory": false,
        "children": [],
        "isRemovable": true,
        "filePath": "l/ConnectionManager.js",
        "code": "module.exports = function() {\n    this.dbConnections = [];\n\n    this.dbConnections[\"k\"] = {\n        host: process.env.EndPoint_rdsK,\n        port: process.env.Port_rdsK,\n        user: process.env.User_rdsK,\n        password: process.env.Password_rdsK,\n        database: \"k\"\n    };\n};"
      }
    },
    "deletedFiles": [],
    "rootNode": "a771542f-218a-4d71-95f5-30e2b0d49442",
    "openFiles": [
      "0309c360-e5da-49c6-bdd3-b1ebadbeaf3d"
    ],
    "currentFileId": "0309c360-e5da-49c6-bdd3-b1ebadbeaf3d",
    "resources": {
      "rds-k": {
        "name": "rds-k",
        "type": "RDS",
        "config": {
          "editMode": false,
          "operation": 0,
          "rdsInstance": {
            "rdsEngineType": "mysql",
            "rdsEdition": "",
            "rdsInstanceSpec": {
              "dbInstanceClass": "db.t2.micro",
              "dbLicenseModel": "general-public-license",
              "dbEngineVersion": "5.7.19"
            },
            "rdsSetting": {
              "instanceIdentifier": "k",
              "masterUsername": "k",
              "masterPassword": "Test#123"
            },
            "rdsDBOptions": {
              "dbName": "k",
              "dbPort": "8080"
            },
            "rdsInstanceArn": "",
            "Host": "",
            "doesExist": false,
            "initializationQuery": "CREATE TABLE Test (ID int(5));",
            "alreadyDeployed": false
          },
          "rdsInstanceResources": [],
          "projectRegion": "eu-west-2",
          "mode": 0,
          "additionalFiles": [],
          "params": {
            "query": "INSERT INTO Test (ID);",
            "inserts": "1"
          },
          "isGlobalEditMode": false,
          "enableInject": true,
          "isNewFromGlobal": false
        }
      }
    },
    "customTemplate": {
      "dialect": null,
      "definitions": {}
    },
    "envVariables": [
      {
        "lambdaId": "all",
        "varKey": "SIGMA_AWS_ACC_ID",
        "varValue": null,
        "shouldPersist": false,
        "displayOnly": false,
        "editable": false
      }
    ],
    "packageJSON": {
      "dependencies": {
        "slappforge-sdk-aws": {
          "name": "slappforge-sdk-aws",
          "language": "javascript",
          "version": "0.0.5",
          "dev": false,
          "notRemovable": false
        }
      }
    }
  },
  "PROJECT_META": {
    "projectName": "l",
    "projectDescription": "",
    "projectVersion": "1.0.0",
    "projectRegion": "eu-west-2",
    "platform": "AWS",
    "platformRegions": {},
    "lastSave": 1562244971443
  },
  "VCS_STATE": {
    "provider": "BitBucket",
    "repo": {
      "name": "l",
      "url": "https://bitbucket.org/KumudikaR/l"
    }
  }
}